[{"page":1,"pages":273,"per_page":"50","total":13608},[{"indicator":{"id":"SP.POP.TOTL","value":"Population (Total)"},"country":{"id":"1A","value":"Arab World"},"value":"340149038","decimal":"0","date":"2009"},{"indicator":{"id":"SP.POP.TOTL","value":"Population (Total)"},"country":{"id":"1A","value":"Arab World"},"value":"332424892","decimal":"0","date":"2008"},{"indicator":{"id":"SP.POP.TOTL","value":"Population (Total)"},"country":{"id":"1A","value":"Arab World"},"value":"324693498","decimal":"0","date":"2007"},{"indicator":{"id":"SP.POP.TOTL","value":"Population (Total)"},"country":{"id":"1A","value":"Arab World"},"value":"317125787","decimal":"0","date":"2006"},{"indicator":{"id":"SP.POP.TOTL","value":"Population (Total)"},"country":{"id":"1A","value":"Arab World"},"value":"309824383","decimal":"0","date":"2005"},{"indicator":{"id":"SP.POP.TOTL","value":"Population (Total)"},"country":{"id":"1A","value":"Arab World"},"value":"302824676","decimal":"0","date":"2004"},{"indicator":{"id":"SP.POP.TOTL","value":"Population (Total)"},"country":{"id":"1A","value":"Arab World"},"value":"296095945","decimal":"0","date":"2003"},{"indicator":{"id":"SP.POP.TOTL","value":"Population (Total)"},"country":{"id":"1A","value":"Arab World"},"value":"289680968","decimal":"0","date":"2002"},{"indicator":{"id":"SP.POP.TOTL","value":"Population (Total)"},"country":{"id":"1A","value":"Arab World"},"value":"283493089","decimal":"0","date":"2001"},{"indicator":{"id":"SP.POP.TOTL","value":"Population (Total)"},"country":{"id":"1A","value":"Arab World"},"value":"277561423","decimal":"0","date":"2000"},{"indicator":{"id":"SP.POP.TOTL","value":"Population (Total)"},"country":{"id":"1A","value":"Arab World"},"value":"271912978","decimal":"0","date":"1999"},{"indicator":{"id":"SP.POP.TOTL","value":"Population (Total)"},"country":{"id":"1A","value":"Arab World"},"value":"266537558","decimal":"0","date":"1998"},{"indicator":{"id":"SP.POP.TOTL","value":"Population (Total)"},"country":{"id":"1A","value":"Arab World"},"value":"261260242","decimal":"0","date":"1997"},{"indicator":{"id":"SP.POP.TOTL","value":"Population (Total)"},"country":{"id":"1A","value":"Arab World"},"value":"255932514","decimal":"0","date":"1996"},{"indicator":{"id":"SP.POP.TOTL","value":"Population (Total)"},"country":{"id":"1A","value":"Arab World"},"value":"250504422","decimal":"0","date":"1995"},{"indicator":{"id":"SP.POP.TOTL","value":"Population (Total)"},"country":{"id":"1A","value":"Arab World"},"value":"243271554","decimal":"0","date":"1994"},{"indicator":{"id":"SP.POP.TOTL","value":"Population (Total)"},"country":{"id":"1A","value":"Arab World"},"value":"237418436","decimal":"0","date":"1993"},{"indicator":{"id":"SP.POP.TOTL","value":"Population (Total)"},"country":{"id":"1A","value":"Arab World"},"value":"231443007","decimal":"0","date":"1992"},{"indicator":{"id":"SP.POP.TOTL","value":"Population (Total)"},"country":{"id":"1A","value":"Arab World"},"value":"227470711","decimal":"0","date":"1991"},{"indicator":{"id":"SP.POP.TOTL","value":"Population (Total)"},"country":{"id":"1A","value":"Arab World"},"value":"221488293","decimal":"0","date":"1990"},{"indicator":{"id":"SP.POP.TOTL","value":"Population (Total)"},"country":{"id":"1A","value":"Arab World"},"value":"213911862.4","decimal":"0","date":"1989"},{"indicator":{"id":"SP.POP.TOTL","value":"Population (Total)"},"country":{"id":"1A","value":"Arab World"},"value":"208460436.98112","decimal":"0","date":"1988"},{"indicator":{"id":"SP.POP.TOTL","value":"Population (Total)"},"country":{"id":"1A","value":"Arab World"},"value":"202985205.363535","decimal":"0","date":"1987"},{"indicator":{"id":"SP.POP.TOTL","value":"Population (Total)"},"country":{"id":"1A","value":"Arab World"},"value":"197522279.579447","decimal":"0","date":"1986"},{"indicator":{"id":"SP.POP.TOTL","value":"Population (Total)"},"country":{"id":"1A","value":"Arab World"},"value":"192047000.969484","decimal":"0","date":"1985"},{"indicator":{"id":"SP.POP.TOTL","value":"Population (Total)"},"country":{"id":"1A","value":"Arab World"},"value":"186631962.9404","decimal":"0","date":"1984"},{"indicator":{"id":"SP.POP.TOTL","value":"Population (Total)"},"country":{"id":"1A","value":"Arab World"},"value":"181346069.988628","decimal":"0","date":"1983"},{"indicator":{"id":"SP.POP.TOTL","value":"Population (Total)"},"country":{"id":"1A","value":"Arab World"},"value":"176068130.531463","decimal":"0","date":"1982"},{"indicator":{"id":"SP.POP.TOTL","value":"Population (Total)"},"country":{"id":"1A","value":"Arab World"},"value":"170835488.937566","decimal":"0","date":"1981"},{"indicator":{"id":"SP.POP.TOTL","value":"Population (Total)"},"country":{"id":"1A","value":"Arab World"},"value":"165653287","decimal":"0","date":"1980"},{"indicator":{"id":"SP.POP.TOTL","value":"Population (Total)"},"country":{"id":"1A","value":"Arab World"},"value":"160508833.889378","decimal":"0","date":"1979"},{"indicator":{"id":"SP.POP.TOTL","value":"Population (Total)"},"country":{"id":"1A","value":"Arab World"},"value":"155422735.353867","decimal":"0","date":"1978"},{"indicator":{"id":"SP.POP.TOTL","value":"Population (Total)"},"country":{"id":"1A","value":"Arab World"},"value":"150474227.832646","decimal":"0","date":"1977"},{"indicator":{"id":"SP.POP.TOTL","value":"Population (Total)"},"country":{"id":"1A","value":"Arab World"},"value":"145768517.199181","decimal":"0","date":"1976"},{"indicator":{"id":"SP.POP.TOTL","value":"Population (Total)"},"country":{"id":"1A","value":"Arab World"},"value":"141376124","decimal":"0","date":"1975"},{"indicator":{"id":"SP.POP.TOTL","value":"Population (Total)"},"country":{"id":"1A","value":"Arab World"},"value":"137327448.397961","decimal":"0","date":"1974"},{"indicator":{"id":"SP.POP.TOTL","value":"Population (Total)"},"country":{"id":"1A","value":"Arab World"},"value":"133592409.285716","decimal":"0","date":"1973"},{"indicator":{"id":"SP.POP.TOTL","value":"Population (Total)"},"country":{"id":"1A","value":"Arab World"},"value":"130095625.285716","decimal":"0","date":"1972"},{"indicator":{"id":"SP.POP.TOTL","value":"Population (Total)"},"country":{"id":"1A","value":"Arab World"},"value":"126726106.397961","decimal":"0","date":"1971"},{"indicator":{"id":"SP.POP.TOTL","value":"Population (Total)"},"country":{"id":"1A","value":"Arab World"},"value":"123400916","decimal":"0","date":"1970"},{"indicator":{"id":"SP.POP.TOTL","value":"Population (Total)"},"country":{"id":"1A","value":"Arab World"},"value":"120078092","decimal":"0","date":"1969"},{"indicator":{"id":"SP.POP.TOTL","value":"Population (Total)"},"country":{"id":"1A","value":"Arab World"},"value":"116787194.6","decimal":"0","date":"1968"},{"indicator":{"id":"SP.POP.TOTL","value":"Population (Total)"},"country":{"id":"1A","value":"Arab World"},"value":"113543760.2","decimal":"0","date":"1967"},{"indicator":{"id":"SP.POP.TOTL","value":"Population (Total)"},"country":{"id":"1A","value":"Arab World"},"value":"110379638.8","decimal":"0","date":"1966"},{"indicator":{"id":"SP.POP.TOTL","value":"Population (Total)"},"country":{"id":"1A","value":"Arab World"},"value":"107318159","decimal":"0","date":"1965"},{"indicator":{"id":"SP.POP.TOTL","value":"Population (Total)"},"country":{"id":"1A","value":"Arab World"},"value":"104359772.6","decimal":"0","date":"1964"},{"indicator":{"id":"SP.POP.TOTL","value":"Population (Total)"},"country":{"id":"1A","value":"Arab World"},"value":"101496308.2","decimal":"0","date":"1963"},{"indicator":{"id":"SP.POP.TOTL","value":"Population (Total)"},"country":{"id":"1A","value":"Arab World"},"value":"98728994.8","decimal":"0","date":"1962"},{"indicator":{"id":"SP.POP.TOTL","value":"Population (Total)"},"country":{"id":"1A","value":"Arab World"},"value":"96058179.4","decimal":"0","date":"1961"},{"indicator":{"id":"SP.POP.TOTL","value":"Population (Total)"},"country":{"id":"1A","value":"Arab World"},"value":"93485943","decimal":"0","date":"1960"}]]